Extended Visualisations In R
…
Using broom:tidy()

My preferred approach is broom::tidy()
\(\implies\) take control of all plots & questions

broom::tidy(penguin_pca)

# A tibble: 1,980 × 3
   row             PC   value
   <chr>        <dbl>   <dbl>
 1 PAL0708_N1A2     1 -1.65  
 2 PAL0708_N1A2     2 -0.0297
 3 PAL0708_N1A2     3  0.757 
 4 PAL0708_N1A2     4 -0.444 
 5 PAL0708_N1A2     5  0.593 
 6 PAL0708_N1A2     6  0.294 
 7 PAL0708_N2A1     1 -1.06  
 8 PAL0708_N2A1     2 -0.706 
 9 PAL0708_N2A1     3  0.424 
10 PAL0708_N2A1     4 -0.805 
# ℹ 1,970 more rows
…
