Extended Statistics In R
…
[1] 0.8584423

Making Predictions

We could obtain a probability for each passenger

Might be considered to be training a model

titanic_tbl |>
  ## Setting type = "response" will transform back to [0,1]
  mutate(prob_survival = predict(titanic_glm, type = "response")) |>
  arrange(desc(prob_survival))

# A tibble: 1,046 × 6
   name                        survived sex     age passengerClass prob_survival
   <chr>                       <fct>    <fct> <dbl> <fct>                  <dbl>
 1 Allison, Miss. Helen Lorai… no       fema…     2 1st                    0.969
 2 Carter, Miss. Lucile Polk   yes      fema…    14 1st                    0.954
 3 Madill, Miss. Georgette Al… yes      fema…    15 1st                    0.953
 4 Hippach, Miss. Jean Gertru… yes      fema…    16 1st                    0.951
 5 Lines, Miss. Mary Conover   yes      fema…    16 1st                    0.951
 6 Maioni, Miss. Roberta       yes      fema…    16 1st                    0.951
 7 Dick, Mrs. Albert Adrian (… yes      fema…    17 1st                    0.950
 8 Penasco y Castellana, Mrs.… yes      fema…    17 1st                    0.950
 9 Astor, Mrs. John Jacob (Ma… yes      fema…    18 1st                    0.948
10 Marvin, Mrs. Daniel Warner… yes      fema…    18 1st                    0.948
# ℹ 1,036 more rows
…
