Using Functions in Series
…
No need to wrap the output of one function inside another

. . .

The output of the first function is passed to the next

By default, it will be the first argument

The Pipe Operator

# This is conventionally how we've used filter
filter(penguins, species == "Adelie") 

# A tibble: 152 × 8
   species island    bill_length_mm bill_depth_mm flipper_length_mm body_mass_g
   <fct>   <fct>              <dbl>         <dbl>             <int>       <int>
 1 Adelie  Torgersen           39.1          18.7               181        3750
 2 Adelie  Torgersen           39.5          17.4               186        3800
 3 Adelie  Torgersen           40.3          18                 195        3250
 4 Adelie  Torgersen           NA            NA                  NA          NA
 5 Adelie  Torgersen           36.7          19.3               193        3450
 6 Adelie  Torgersen           39.3          20.6               190        3650
 7 Adelie  Torgersen           38.9          17.8               181        3625
 8 Adelie  Torgersen           39.2          19.6               195        4675
 9 Adelie  Torgersen           34.1          18.1               193        3475
10 Adelie  Torgersen           42            20.2               190        4250
# ℹ 142 more rows
# ℹ 2 more variables: sex <fct>, year <int>

The Pipe Operator

# Here, we're passing the object to filter using |>
penguins |> filter(species == "Adelie")

# A tibble: 152 × 8
   species island    bill_length_mm bill_depth_mm flipper_length_mm body_mass_g
   <fct>   <fct>              <dbl>         <dbl>             <int>       <int>
 1 Adelie  Torgersen           39.1          18.7               181        3750
 2 Adelie  Torgersen           39.5          17.4               186        3800
 3 Adelie  Torgersen           40.3          18                 195        3250
 4 Adelie  Torgersen           NA            NA                  NA          NA
 5 Adelie  Torgersen           36.7          19.3               193        3450
 6 Adelie  Torgersen           39.3          20.6               190        3650
 7 Adelie  Torgersen           38.9          17.8               181        3625
 8 Adelie  Torgersen           39.2          19.6               195        4675
 9 Adelie  Torgersen           34.1          18.1               193        3475
10 Adelie  Torgersen           42            20.2               190        4250
# ℹ 142 more rows
# ℹ 2 more variables: sex <fct>, year <int>

Calling an object by name simply returns the complete object

The Pipe Operator

# Filter the object, then pass the filtered object to arrange using the pipe
penguins |> filter(species == "Adelie") |> arrange(body_mass_g)

# A tibble: 152 × 8
   species island    bill_length_mm bill_depth_mm flipper_length_mm body_mass_g
   <fct>   <fct>              <dbl>         <dbl>             <int>       <int>
 1 Adelie  Biscoe              36.5          16.6               181        2850
 2 Adelie  Biscoe              36.4          17.1               184        2850
 3 Adelie  Biscoe              34.5          18.1               187        2900
 4 Adelie  Dream               33.1          16.1               178        2900
 5 Adelie  Torgersen           38.6          17                 188        2900
 6 Adelie  Biscoe              37.9          18.6               193        2925
 7 Adelie  Dream               37.5          18.9               179        2975
 8 Adelie  Dream               37            16.9               185        3000
 9 Adelie  Dream               37.3          16.8               192        3000
10 Adelie  Torgersen           35.9          16.6               190        3050
# ℹ 142 more rows
# ℹ 2 more variables: sex <fct>, year <int>
…
