Worked Challenges: Day 1
…
    studyName, ends_with("ID"),
    Species, Island, starts_with("Culmen"), starts_with("Flipper"),
    starts_with("Body"), Sex, year
  ) |>
  rename_with(
    \(x) {
      x |> 
        str_replace("Culmen", "beak") |> 
        str_remove_all("[\\(\\)]") |> 
        str_to_lower() |>
        str_replace_all(" ", "_")
    } 
  )

# A tibble: 344 × 10
   studyname individual_id species island    beak_length_mm beak_depth_mm
   <chr>     <chr>         <chr>   <chr>              <dbl>         <dbl>
 1 PAL0708   N1A1          Adelie  Torgersen           39.1          18.7
 2 PAL0708   N1A2          Adelie  Torgersen           39.5          17.4
 3 PAL0708   N2A1          Adelie  Torgersen           40.3          18  
 4 PAL0708   N2A2          Adelie  Torgersen           NA            NA  
 5 PAL0708   N3A1          Adelie  Torgersen           36.7          19.3
 6 PAL0708   N3A2          Adelie  Torgersen           39.3          20.6
 7 PAL0708   N4A1          Adelie  Torgersen           38.9          17.8
 8 PAL0708   N4A2          Adelie  Torgersen           39.2          19.6
 9 PAL0708   N5A1          Adelie  Torgersen           34.1          18.1
10 PAL0708   N5A2          Adelie  Torgersen           42            20.2
# ℹ 334 more rows
# ℹ 4 more variables: flipper_length_mm <dbl>, body_mass_g <dbl>, sex <chr>,
#   year <dbl>
…
Challenge 3

This is the same as the above but inserting the line dplyr::filter(year == 2009) at some stage. The position within the code isn’t important

Challenge 4

penguins |> unite("island:year", island, year, sep = ":")

# A tibble: 344 × 7
   species `island:year`  bill_length_mm bill_depth_mm flipper_length_mm
   <fct>   <chr>                   <dbl>         <dbl>             <int>
 1 Adelie  Torgersen:2007           39.1          18.7               181
 2 Adelie  Torgersen:2007           39.5          17.4               186
 3 Adelie  Torgersen:2007           40.3          18                 195
 4 Adelie  Torgersen:2007           NA            NA                  NA
 5 Adelie  Torgersen:2007           36.7          19.3               193
 6 Adelie  Torgersen:2007           39.3          20.6               190
 7 Adelie  Torgersen:2007           38.9          17.8               181
 8 Adelie  Torgersen:2007           39.2          19.6               195
 9 Adelie  Torgersen:2007           34.1          18.1               193
10 Adelie  Torgersen:2007           42            20.2               190
# ℹ 334 more rows
# ℹ 2 more variables: body_mass_g <int>, sex <fct>
…
